…
One additional challenge when searching for Census variables is understanding variable IDs, which are required to fetch data from the Census and ACS APIs. There are thousands of variables available across the different datasets and summary files. To make searching easier for R users, tidycensus offers the `load_variables()` function. This function obtains a dataset of variables from the Census Bureau website and formats it for fast searching, ideally in RStudio.

The function takes two required arguments: `year`, which takes the year or endyear of the Census dataset or ACS sample, and the dataset name - one of `sf1`, `sf3`, `acs1`, or `acs5`. For the ACS datasets, append `/profile` for the Data Profile, and `/summary` for the Summary Tables. As this function requires processing thousands of variables from the Census Bureau which may take a few moments depending on the user's internet connection, the user can specify `cache = TRUE` in the function call to store the data in the user's cache directory for future access. On subsequent calls of the `load_variables()` function, `cache = TRUE` will direct the function to look in the cache directory for the variables rather than the Census website.

`load_variables()` works as follows:


```r
v16 <- load_variables(2016, "acs5", cache = TRUE)

filter(v16, str_detect(concept, "MEDIAN AGE"))
```

```
## # A tibble: 114 × 3
##    name       label                   concept                                   
##    <chr>      <chr>                   <chr>                                     
##  1 B01002_001 Estimate!!Median age!!… MEDIAN AGE BY SEX                         
##  2 B01002_002 Estimate!!Median age!!… MEDIAN AGE BY SEX                         
##  3 B01002_003 Estimate!!Median age!!… MEDIAN AGE BY SEX                         
##  4 B01002A_0… Estimate!!Median age!!… MEDIAN AGE BY SEX (WHITE ALONE)           
##  5 B01002A_0… Estimate!!Median age!!… MEDIAN AGE BY SEX (WHITE ALONE)           
##  6 B01002A_0… Estimate!!Median age!!… MEDIAN AGE BY SEX (WHITE ALONE)           
##  7 B01002B_0… Estimate!!Median age!!… MEDIAN AGE BY SEX (BLACK OR AFRICAN AMERI…
##  8 B01002B_0… Estimate!!Median age!!… MEDIAN AGE BY SEX (BLACK OR AFRICAN AMERI…
##  9 B01002B_0… Estimate!!Median age!!… MEDIAN AGE BY SEX (BLACK OR AFRICAN AMERI…
## 10 B01002C_0… Estimate!!Median age!!… MEDIAN AGE BY SEX (AMERICAN INDIAN AND AL…
## # … with 104 more rows
```
…
