…
Similarly, `get_acs()` retrieves data from the American Community Survey.


```r
pop15to19 <- get_acs(
  geography = "state", 
  variables = "B01003_001",
  year = 2019
)

pop15to19
```

```
## # A tibble: 52 x 5
##    GEOID NAME                 variable   estimate   moe
##    <chr> <chr>                <chr>         <dbl> <dbl>
##  1 01    Alabama              B01003_001  4876250    NA
##  2 02    Alaska               B01003_001   737068    NA
##  3 04    Arizona              B01003_001  7050299    NA
##  4 05    Arkansas             B01003_001  2999370    NA
##  5 06    California           B01003_001 39283497    NA
##  6 08    Colorado             B01003_001  5610349    NA
##  7 09    Connecticut          B01003_001  3575074    NA
##  8 10    Delaware             B01003_001   957248    NA
##  9 11    District of Columbia B01003_001   692683    NA
## 10 12    Florida              B01003_001 20901636    NA
## # … with 42 more rows
```
…
```r
pop19 <- get_acs(
  geography = "state", 
  variables = "B01003_001", 
  survey = "acs1",
  year = 2019
)

pop19
```

```
## # A tibble: 52 x 5
##    GEOID NAME                 variable   estimate   moe
##    <chr> <chr>                <chr>         <dbl> <dbl>
##  1 01    Alabama              B01003_001  4903185    NA
##  2 02    Alaska               B01003_001   731545    NA
##  3 04    Arizona              B01003_001  7278717    NA
##  4 05    Arkansas             B01003_001  3017804    NA
##  5 06    California           B01003_001 39512223    NA
##  6 08    Colorado             B01003_001  5758736    NA
##  7 09    Connecticut          B01003_001  3565287    NA
##  8 10    Delaware             B01003_001   973764    NA
##  9 11    District of Columbia B01003_001   705749    NA
## 10 12    Florida              B01003_001 21477737    NA
## # … with 42 more rows
```
Variables from the ACS detailed tables, data profiles, and summary tables are available through tidycensus's `get_acs()` function; the function will auto-detect from which dataset to look for variables. Alternatively, users can supply a table name to the `table` parameter in `get_acs()`; this will return data for every variable in that table. For example, to get all variables associated with table B01001, which covers sex broken down by age, from the 2015-2019 5-year ACS:


```r
age_table <- get_acs(
  geography = "state", 
  table = "B01001",
  year = 2019
)

age_table
```

```
## # A tibble: 2,548 x 5
##    GEOID NAME    variable   estimate   moe
##    <chr> <chr>   <chr>         <dbl> <dbl>
##  1 01    Alabama B01001_001  4876250    NA
##  2 01    Alabama B01001_002  2359355  1270
##  3 01    Alabama B01001_003   149090   704
##  4 01    Alabama B01001_004   153494  2290
##  5 01    Alabama B01001_005   158617  2274
##  6 01    Alabama B01001_006    98257   468
##  7 01    Alabama B01001_007    64980   834
##  8 01    Alabama B01001_008    35870  1436
##  9 01    Alabama B01001_009    35040  1472
## 10 01    Alabama B01001_010    95065  1916
## # … with 2,538 more rows
```
…
The geography parameter must be typed exactly as specified in the table above to request data correctly from the Census API; use the table above as a reference and copy-paste for longer strings. For core-based statistical areas and zip code tabulation areas, two heavily-requested geographies, the aliases `"cbsa"` and `"zcta"` can be used, respectively, to fetch data for those geographies.


```r
cbsa_population <- get_acs(
  geography = "cbsa",
  variables = "B01003_001",
  year = 2019
)

cbsa_population
```

```
## # A tibble: 938 x 5
##    GEOID NAME                             variable   estimate   moe
##    <chr> <chr>                            <chr>         <dbl> <dbl>
##  1 10100 Aberdeen, SD Micro Area          B01003_001    42824    NA
##  2 10140 Aberdeen, WA Micro Area          B01003_001    72779    NA
##  3 10180 Abilene, TX Metro Area           B01003_001   170669    NA
##  4 10220 Ada, OK Micro Area               B01003_001    38355    NA
##  5 10300 Adrian, MI Micro Area            B01003_001    98381    NA
##  6 10380 Aguadilla-Isabela, PR Metro Area B01003_001   301107    NA
##  7 10420 Akron, OH Metro Area             B01003_001   703845    NA
##  8 10460 Alamogordo, NM Micro Area        B01003_001    66137    NA
##  9 10500 Albany, GA Metro Area            B01003_001   148436    NA
## 10 10540 Albany-Lebanon, OR Metro Area    B01003_001   125048    NA
## # … with 928 more rows
```
…
```r
wi_income <- get_acs(
  geography = "county", 
  variables = "B19013_001", 
  state = "WI",
  year = 2019
)

wi_income
```

```
## # A tibble: 72 x 5
##    GEOID NAME                       variable   estimate   moe
##    <chr> <chr>                      <chr>         <dbl> <dbl>
##  1 55001 Adams County, Wisconsin    B19013_001    46369  1834
##  2 55003 Ashland County, Wisconsin  B19013_001    42510  2858
##  3 55005 Barron County, Wisconsin   B19013_001    52703  2104
##  4 55007 Bayfield County, Wisconsin B19013_001    56096  1877
##  5 55009 Brown County, Wisconsin    B19013_001    62340  1112
##  6 55011 Buffalo County, Wisconsin  B19013_001    57829  1873
##  7 55013 Burnett County, Wisconsin  B19013_001    52672  1388
##  8 55015 Calumet County, Wisconsin  B19013_001    75814  2425
##  9 55017 Chippewa County, Wisconsin B19013_001    59742  1759
## 10 55019 Clark County, Wisconsin    B19013_001    54012  1223
## # … with 62 more rows
```
…
```r
dane_income <- get_acs(
  geography = "tract", 
  variables = "B19013_001", 
  state = "WI", 
  county = "Dane"
)

dane_income
```

```
## # A tibble: 107 x 5
##    GEOID       NAME                                     variable  estimate   moe
##    <chr>       <chr>                                    <chr>        <dbl> <dbl>
##  1 55025000100 Census Tract 1, Dane County, Wisconsin   B19013_0…    72471 12984
##  2 55025000201 Census Tract 2.01, Dane County, Wiscons… B19013_0…    94821 11860
##  3 55025000202 Census Tract 2.02, Dane County, Wiscons… B19013_0…    84145  7021
##  4 55025000204 Census Tract 2.04, Dane County, Wiscons… B19013_0…    79617 11823
##  5 55025000205 Census Tract 2.05, Dane County, Wiscons… B19013_0…    91326 13453
##  6 55025000300 Census Tract 3, Dane County, Wisconsin   B19013_0…    53778  7593
##  7 55025000401 Census Tract 4.01, Dane County, Wiscons… B19013_0…    98178  7330
##  8 55025000402 Census Tract 4.02, Dane County, Wiscons… B19013_0…   107440  6585
##  9 55025000405 Census Tract 4.05, Dane County, Wiscons… B19013_0…    68911  4141
## 10 55025000406 Census Tract 4.06, Dane County, Wiscons… B19013_0…    74489 10451
## # … with 97 more rows
```
…
One additional challenge when searching for Census variables is understanding variable IDs, which are required to fetch data from the Census and ACS APIs. There are thousands of variables available across the different datasets and summary files. To make searching easier for R users, tidycensus offers the `load_variables()` function. This function obtains a dataset of variables from the Census Bureau website and formats it for fast searching, ideally in RStudio.

The function takes two required arguments: `year`, which takes the year or endyear of the Census dataset or ACS sample, and the dataset name - one of `sf1`, `sf3`, `acs1`, or `acs5`. For the ACS datasets, append `/profile` for the Data Profile, and `/summary` for the Summary Tables. As this function requires processing thousands of variables from the Census Bureau which may take a few moments depending on the user's internet connection, the user can specify `cache = TRUE` in the function call to store the data in the user's cache directory for future access. On subsequent calls of the `load_variables()` function, `cache = TRUE` will direct the function to look in the cache directory for the variables rather than the Census website.

`load_variables()` works as follows:


```r
v16 <- load_variables(2016, "acs5", cache = TRUE)

filter(v16, str_detect(concept, "MEDIAN AGE"))
```

```
## # A tibble: 114 x 3
##    name       label                   concept                                   
##    <chr>      <chr>                   <chr>                                     
##  1 B01002_001 Estimate!!Median age!!… MEDIAN AGE BY SEX                         
##  2 B01002_002 Estimate!!Median age!!… MEDIAN AGE BY SEX                         
##  3 B01002_003 Estimate!!Median age!!… MEDIAN AGE BY SEX                         
##  4 B01002A_0… Estimate!!Median age!!… MEDIAN AGE BY SEX (WHITE ALONE)           
##  5 B01002A_0… Estimate!!Median age!!… MEDIAN AGE BY SEX (WHITE ALONE)           
##  6 B01002A_0… Estimate!!Median age!!… MEDIAN AGE BY SEX (WHITE ALONE)           
##  7 B01002B_0… Estimate!!Median age!!… MEDIAN AGE BY SEX (BLACK OR AFRICAN AMERI…
##  8 B01002B_0… Estimate!!Median age!!… MEDIAN AGE BY SEX (BLACK OR AFRICAN AMERI…
##  9 B01002B_0… Estimate!!Median age!!… MEDIAN AGE BY SEX (BLACK OR AFRICAN AMERI…
## 10 B01002C_0… Estimate!!Median age!!… MEDIAN AGE BY SEX (AMERICAN INDIAN AND AL…
## # … with 104 more rows
```
…
```r
hhinc <- get_acs(
  geography = "state", 
  table = "B19001", 
  survey = "acs1",
  year = 2016
)

hhinc
```

```
## # A tibble: 884 x 5
##    GEOID NAME    variable   estimate   moe
##    <chr> <chr>   <chr>         <dbl> <dbl>
##  1 01    Alabama B19001_001  1852518 12189
##  2 01    Alabama B19001_002   176641  6328
##  3 01    Alabama B19001_003   120590  5347
##  4 01    Alabama B19001_004   117332  5956
##  5 01    Alabama B19001_005   108912  5308
##  6 01    Alabama B19001_006   102080  4740
##  7 01    Alabama B19001_007   103366  5246
##  8 01    Alabama B19001_008    91011  4699
##  9 01    Alabama B19001_009    86996  4418
## 10 01    Alabama B19001_010    74864  4210
## # … with 874 more rows
```
…
```r
hhinc_wide <- get_acs(
  geography = "state", 
  table = "B19001", 
  survey = "acs1", 
  year = 2016,
  output = "wide"
)

hhinc_wide
```

```
## # A tibble: 52 x 36
##    GEOID NAME        B19001_001E B19001_001M B19001_002E B19001_002M B19001_003E
##    <chr> <chr>             <dbl>       <dbl>       <dbl>       <dbl>       <dbl>
##  1 28    Mississippi     1091245        8803      113124        4835       87136
##  2 29    Missouri        2372190       10844      160615        6705      122649
##  3 30    Montana          416125        4426       26734        2183       24786
##  4 31    Nebraska         747562        4452       45794        3116       33266
##  5 32    Nevada          1055158        6433       68507        4886       42720
##  6 33    New Hampsh…      520643        5191       20890        2566       15933
##  7 34    New Jersey      3194519       10274      170029        6836      118862
##  8 35    New Mexico       758364        6296       66983        4439       48930
##  9 36    New York        7209054       17665      543763       12132      352029
## 10 37    North Caro…     3882423       16063      282491        7816      228088
## # … with 42 more rows, and 29 more variables: B19001_003M <dbl>,
## #   B19001_004E <dbl>, B19001_004M <dbl>, B19001_005E <dbl>, B19001_005M <dbl>,
## #   B19001_006E <dbl>, B19001_006M <dbl>, B19001_007E <dbl>, B19001_007M <dbl>,
## #   B19001_008E <dbl>, B19001_008M <dbl>, B19001_009E <dbl>, B19001_009M <dbl>,
## #   B19001_010E <dbl>, B19001_010M <dbl>, B19001_011E <dbl>, B19001_011M <dbl>,
## #   B19001_012E <dbl>, B19001_012M <dbl>, B19001_013E <dbl>, B19001_013M <dbl>,
## #   B19001_014E <dbl>, B19001_014M <dbl>, B19001_015E <dbl>, B19001_015M <dbl>,
## #   B19001_016E <dbl>, B19001_016M <dbl>, B19001_017E <dbl>, B19001_017M <dbl>
```
…
```r
ga <- get_acs(
  geography = "county",
  state = "Georgia",
  variables = c(medinc = "B19013_001",
                medage = "B01002_001"),
  year = 2019
)

ga
```

```
## # A tibble: 318 x 5
##    GEOID NAME                     variable estimate    moe
##    <chr> <chr>                    <chr>       <dbl>  <dbl>
##  1 13001 Appling County, Georgia  medage       40.3    1.4
##  2 13001 Appling County, Georgia  medinc    40304   5180  
##  3 13003 Atkinson County, Georgia medage       36.4    1  
##  4 13003 Atkinson County, Georgia medinc    37197   3686  
##  5 13005 Bacon County, Georgia    medage       36.7    0.7
##  6 13005 Bacon County, Georgia    medinc    37519   5492  
##  7 13007 Baker County, Georgia    medage       46.1    5.5
##  8 13007 Baker County, Georgia    medinc    32917   6967  
##  9 13009 Baldwin County, Georgia  medage       35.5    0.3
## 10 13009 Baldwin County, Georgia  medinc    43672   3736  
## # … with 308 more rows
```
…
```r
ga_wide <- get_acs(
  geography = "county",
  state = "Georgia",
  variables = c(medinc = "B19013_001",
                medage = "B01002_001"),
  output = "wide"
)

ga_wide
```

```
## # A tibble: 159 x 6
##    GEOID NAME                          medincE medincM medageE medageM
##    <chr> <chr>                           <dbl>   <dbl>   <dbl>   <dbl>
##  1 13005 Bacon County, Georgia           37519    5492    36.7     0.7
##  2 13025 Brantley County, Georgia        38857    3480    41.1     0.8
##  3 13017 Ben Hill County, Georgia        32229    3845    39.9     1.1
##  4 13033 Burke County, Georgia           44151    2438    37.4     0.6
##  5 13047 Catoosa County, Georgia         56235    2290    40.4     0.4
##  6 13053 Chattahoochee County, Georgia   47096    5158    24.5     0.5
##  7 13055 Chattooga County, Georgia       36807    2268    39.4     0.7
##  8 13073 Columbia County, Georgia        82339    3532    36.9     0.4
##  9 13087 Decatur County, Georgia         41481    3584    37.8     0.6
## 10 13115 Floyd County, Georgia           48336    2266    38.3     0.3
## # … with 149 more rows
```
…
```r
honolulu_migration <- get_flows(
  geography = "county",
  state = "HI",
  county = "Honolulu",
  year = 2018,
  show_call = TRUE
)

honolulu_migration
```

```
## # A tibble: 3,252 x 7
##    GEOID1 GEOID2 FULL1_NAME              FULL2_NAME      variable estimate   moe
##    <chr>  <chr>  <chr>                   <chr>           <chr>       <dbl> <dbl>
##  1 15003  <NA>   Honolulu County, Hawaii Africa          MOVEDIN        86    70
##  2 15003  <NA>   Honolulu County, Hawaii Africa          MOVEDOUT       NA    NA
##  3 15003  <NA>   Honolulu County, Hawaii Africa          MOVEDNET       NA    NA
##  4 15003  <NA>   Honolulu County, Hawaii Asia            MOVEDIN      7620   891
##  5 15003  <NA>   Honolulu County, Hawaii Asia            MOVEDOUT       NA    NA
##  6 15003  <NA>   Honolulu County, Hawaii Asia            MOVEDNET       NA    NA
##  7 15003  <NA>   Honolulu County, Hawaii Central America MOVEDIN       228    98
##  8 15003  <NA>   Honolulu County, Hawaii Central America MOVEDOUT       NA    NA
##  9 15003  <NA>   Honolulu County, Hawaii Central America MOVEDNET       NA    NA
## 10 15003  <NA>   Honolulu County, Hawaii Caribbean       MOVEDIN       106    94
## # … with 3,242 more rows
```
…
