…
For a first example, let's request data on median age from the 2015-2019 ACS with `get_acs()` for all counties in the United States. This requires specifying `geography = "county"` and leaving state set to `NULL`, the default.


```r
median_age <- get_acs(
  geography = "county",
  variables = "B01002_001",
  year = 2019
)

median_age
```

```
## # A tibble: 3,220 x 5
##    GEOID NAME                     variable   estimate   moe
##    <chr> <chr>                    <chr>         <dbl> <dbl>
##  1 01001 Autauga County, Alabama  B01002_001     38.2   0.6
##  2 01003 Baldwin County, Alabama  B01002_001     43     0.3
##  3 01005 Barbour County, Alabama  B01002_001     40.4   0.5
##  4 01007 Bibb County, Alabama     B01002_001     40.9   1.3
##  5 01009 Blount County, Alabama   B01002_001     40.7   0.3
##  6 01011 Bullock County, Alabama  B01002_001     40.2   2.3
##  7 01013 Butler County, Alabama   B01002_001     40.8   0.7
##  8 01015 Calhoun County, Alabama  B01002_001     39.6   0.3
##  9 01017 Chambers County, Alabama B01002_001     42     0.7
## 10 01019 Cherokee County, Alabama B01002_001     46.5   0.5
## # … with 3,210 more rows
```

The default method for printing data used by the tibble package shows the first 10 rows of the dataset, which in this case prints counties in Alabama. A first exploratory data analysis question might involve understanding which counties are the *youngest* and *oldest* in the United States as measured by median age. This task can be accomplished with the `arrange()` function found in the dplyr package. `arrange()` sorts a dataset by values in one or more columns and returns the sorted result. To view the dataset in ascending order of a given column, supply the data object and a column name to the `arrange()` function.


```r
arrange(median_age, estimate)
```

```
## # A tibble: 3,220 x 5
##    GEOID NAME                          variable   estimate   moe
##    <chr> <chr>                         <chr>         <dbl> <dbl>
##  1 51678 Lexington city, Virginia      B01002_001     22.3   0.7
##  2 51750 Radford city, Virginia        B01002_001     23.4   0.5
##  3 16065 Madison County, Idaho         B01002_001     23.5   0.2
##  4 46121 Todd County, South Dakota     B01002_001     23.8   0.4
##  5 02158 Kusilvak Census Area, Alaska  B01002_001     24.1   0.2
##  6 13053 Chattahoochee County, Georgia B01002_001     24.5   0.5
##  7 53075 Whitman County, Washington    B01002_001     24.7   0.3
##  8 49049 Utah County, Utah             B01002_001     24.8   0.1
##  9 46027 Clay County, South Dakota     B01002_001     24.9   0.4
## 10 51830 Williamsburg city, Virginia   B01002_001     24.9   0.7
## # … with 3,210 more rows
```

Per the 2015-2019 ACS, the two youngest "counties" in the United States are independent cities in Virginia, which are treated as county-equivalents. Both Lexington and Radford are college towns; Lexington is home to both Washington & Lee University and the Virginia Military Institute, and Radford houses Radford University. The youngest *county* then by median age is Madison County Idaho.

To retrieve the *oldest* counties in the United States by median age, an analyst can use the `desc()` function available in dplyr to sort the `estimate` column in descending order.


```r
arrange(median_age, desc(estimate))
```

```
## # A tibble: 3,220 x 5
##    GEOID NAME                            variable   estimate   moe
##    <chr> <chr>                           <chr>         <dbl> <dbl>
##  1 12119 Sumter County, Florida          B01002_001     67.4   0.2
##  2 51091 Highland County, Virginia       B01002_001     60.9   3.5
##  3 08027 Custer County, Colorado         B01002_001     59.7   2.6
##  4 12015 Charlotte County, Florida       B01002_001     59.1   0.2
##  5 41069 Wheeler County, Oregon          B01002_001     59     3.3
##  6 51133 Northumberland County, Virginia B01002_001     58.9   0.7
##  7 26131 Ontonagon County, Michigan      B01002_001     58.6   0.4
##  8 35021 Harding County, New Mexico      B01002_001     58.5   5.5
##  9 53031 Jefferson County, Washington    B01002_001     58.3   0.7
## 10 26001 Alcona County, Michigan         B01002_001     58.2   0.3
## # … with 3,210 more rows
```

The oldest county in the United States by almost 7 years over the second-oldest is Sumter County, Florida. Sumter County is home to The Villages, a Census-designated place that includes a large age-restricted community [also called The Villages](https://www.thevillages.com/).

The tidyverse includes several tools for parsing datasets that allow for exploration beyond sorting and browsing data. The `filter()` function in dplyr queries a dataset for rows where a given condition evaluates to `TRUE`, and retains those rows only. For analysts who are familiar with databases and SQL, this is equivalent to a `WHERE` clause. This helps analysts subset their data for specific areas by their characteristics, and answer questions like "how many counties in the US have a median age of 50 or older?"


```r
filter(median_age, estimate >= 50)
```

```
## # A tibble: 216 x 5
##    GEOID NAME                        variable   estimate   moe
##    <chr> <chr>                       <chr>         <dbl> <dbl>
##  1 04007 Gila County, Arizona        B01002_001     50.2   0.2
##  2 04012 La Paz County, Arizona      B01002_001     56.5   0.5
##  3 04015 Mohave County, Arizona      B01002_001     51.6   0.3
##  4 04025 Yavapai County, Arizona     B01002_001     53.4   0.1
##  5 05005 Baxter County, Arkansas     B01002_001     52.2   0.3
##  6 05089 Marion County, Arkansas     B01002_001     52.2   0.5
##  7 05097 Montgomery County, Arkansas B01002_001     50.4   0.8
##  8 05137 Stone County, Arkansas      B01002_001     50.1   0.7
##  9 06003 Alpine County, California   B01002_001     52.2   8.8
## 10 06005 Amador County, California   B01002_001     50.5   0.4
## # … with 206 more rows
```

Functions like `arrange()` and `filter()` operate on row values and organize data by row. Other tidyverse functions, like tidyr's `separate()`, operate on columns. The `NAME` column, returned by default by most tidycensus functions, contains a basic description of the location that can be more intuitive than the `GEOID`. For the 2015-2019 ACS, `NAME` is formatted as "X County, Y", where X is the county name and Y is the state name. `separate()` can split this column into two columns where one retains the county name and the other retains the state; this can be useful for analysts who need to complete a comparative analysis by state.


```r
separate(
  median_age,
  NAME,
  into = c("county", "state"),
  sep = ", "
)
```

```
## # A tibble: 3,220 x 6
##    GEOID county          state   variable   estimate   moe
##    <chr> <chr>           <chr>   <chr>         <dbl> <dbl>
##  1 01001 Autauga County  Alabama B01002_001     38.2   0.6
##  2 01003 Baldwin County  Alabama B01002_001     43     0.3
##  3 01005 Barbour County  Alabama B01002_001     40.4   0.5
##  4 01007 Bibb County     Alabama B01002_001     40.9   1.3
##  5 01009 Blount County   Alabama B01002_001     40.7   0.3
##  6 01011 Bullock County  Alabama B01002_001     40.2   2.3
##  7 01013 Butler County   Alabama B01002_001     40.8   0.7
##  8 01015 Calhoun County  Alabama B01002_001     39.6   0.3
##  9 01017 Chambers County Alabama B01002_001     42     0.7
## 10 01019 Cherokee County Alabama B01002_001     46.5   0.5
## # … with 3,210 more rows
```
…
az_race <- get_acs(
  geography = "county",
  state = "AZ",
  variables = race_vars,
  summary_var = "B03002_001"
) 

az_race
```

```
## # A tibble: 90 x 7
##    GEOID NAME                    variable estimate   moe summary_est summary_moe
##    <chr> <chr>                   <chr>       <dbl> <dbl>       <dbl>       <dbl>
##  1 04001 Apache County, Arizona  White       13022     4       71511          NA
##  2 04001 Apache County, Arizona  Black         373   138       71511          NA
##  3 04001 Apache County, Arizona  Native      52285   234       71511          NA
##  4 04001 Apache County, Arizona  Asian         246    78       71511          NA
##  5 04001 Apache County, Arizona  HIPI           16    16       71511          NA
##  6 04001 Apache County, Arizona  Hispanic     4531    NA       71511          NA
##  7 04003 Cochise County, Arizona White       69216   235      125867          NA
##  8 04003 Cochise County, Arizona Black        4620   247      125867          NA
##  9 04003 Cochise County, Arizona Native       1142   191      125867          NA
## 10 04003 Cochise County, Arizona Asian        2431   162      125867          NA
## # … with 80 more rows
```

By using dplyr's `mutate()` function, we calculate a new column, `percent`, representing the percentage of each Census tract's population that corresponds to each racial/ethnic group in 2015-2019. The `select()` function, also in dplyr, retains only those columns that we need to view.


```r
az_race_percent <- az_race %>%
  mutate(percent = 100 * (estimate / summary_est)) %>%
  select(NAME, variable, percent)

az_race_percent
```

```
## # A tibble: 90 x 3
##    NAME                    variable percent
##    <chr>                   <chr>      <dbl>
##  1 Apache County, Arizona  White    18.2   
##  2 Apache County, Arizona  Black     0.522 
##  3 Apache County, Arizona  Native   73.1   
##  4 Apache County, Arizona  Asian     0.344 
##  5 Apache County, Arizona  HIPI      0.0224
##  6 Apache County, Arizona  Hispanic  6.34  
##  7 Cochise County, Arizona White    55.0   
##  8 Cochise County, Arizona Black     3.67  
##  9 Cochise County, Arizona Native    0.907 
## 10 Cochise County, Arizona Asian     1.93  
## # … with 80 more rows
```
…
```r
mn_hh_income <- get_acs(
  geography = "county",
  table = "B19001",
  state = "MN",
  year = 2016
)

mn_hh_income
```

```
## # A tibble: 1,479 x 5
##    GEOID NAME                     variable   estimate   moe
##    <chr> <chr>                    <chr>         <dbl> <dbl>
##  1 27001 Aitkin County, Minnesota B19001_001     7640   262
##  2 27001 Aitkin County, Minnesota B19001_002      562    77
##  3 27001 Aitkin County, Minnesota B19001_003      544    72
##  4 27001 Aitkin County, Minnesota B19001_004      472    69
##  5 27001 Aitkin County, Minnesota B19001_005      508    68
##  6 27001 Aitkin County, Minnesota B19001_006      522    92
##  7 27001 Aitkin County, Minnesota B19001_007      447    61
##  8 27001 Aitkin County, Minnesota B19001_008      390    49
##  9 27001 Aitkin County, Minnesota B19001_009      426    64
## 10 27001 Aitkin County, Minnesota B19001_010      415    65
## # … with 1,469 more rows
```
…
```r
mn_hh_income_recode <- mn_hh_income %>%
  filter(variable != "B19001_001") %>%
  mutate(incgroup = case_when(
    variable < "B19001_008" ~ "below35k", 
    variable < "B19001_013" ~ "bw35kand75k", 
    TRUE ~ "above75k"
  )) 

mn_hh_income_recode
```

```
## # A tibble: 1,392 x 6
##    GEOID NAME                     variable   estimate   moe incgroup   
##    <chr> <chr>                    <chr>         <dbl> <dbl> <chr>      
##  1 27001 Aitkin County, Minnesota B19001_002      562    77 below35k   
##  2 27001 Aitkin County, Minnesota B19001_003      544    72 below35k   
##  3 27001 Aitkin County, Minnesota B19001_004      472    69 below35k   
##  4 27001 Aitkin County, Minnesota B19001_005      508    68 below35k   
##  5 27001 Aitkin County, Minnesota B19001_006      522    92 below35k   
##  6 27001 Aitkin County, Minnesota B19001_007      447    61 below35k   
##  7 27001 Aitkin County, Minnesota B19001_008      390    49 bw35kand75k
##  8 27001 Aitkin County, Minnesota B19001_009      426    64 bw35kand75k
##  9 27001 Aitkin County, Minnesota B19001_010      415    65 bw35kand75k
## 10 27001 Aitkin County, Minnesota B19001_011      706    81 bw35kand75k
## # … with 1,382 more rows
```

Our result illustrates how the different variable IDs are mapped to the new, recoded categories that we specified in `case_when()`.  The `group_by() %>% summarize()` workflow can now be applied to the recoded categories by county to tabulate the data into a smaller number of groups.  


```r
mn_group_sums <- mn_hh_income_recode %>%
  group_by(GEOID, incgroup) %>%
  summarize(estimate = sum(estimate))

mn_group_sums
```

```
## # A tibble: 261 x 3
## # Groups:   GEOID [87]
##    GEOID incgroup    estimate
##    <chr> <chr>          <dbl>
##  1 27001 above75k        1706
##  2 27001 below35k        3055
##  3 27001 bw35kand75k     2879
##  4 27003 above75k       61403
##  5 27003 below35k       24546
##  6 27003 bw35kand75k    39311
##  7 27005 above75k        4390
##  8 27005 below35k        4528
##  9 27005 bw35kand75k     4577
## 10 27007 above75k        4491
## # … with 251 more rows
```
…
```r
salt_lake_grouped <- salt_lake %>%
  mutate(sex = if_else(str_sub(variable, start = -2) < "26",
                       "Male", 
                       "Female")) %>%
  group_by(GEOID, sex) %>%
  summarize(sum_est = sum(estimate), 
            sum_moe = moe_sum(moe, estimate))


salt_lake_grouped
```

```
## # A tibble: 424 x 4
## # Groups:   GEOID [212]
##    GEOID       sex    sum_est sum_moe
##    <chr>       <chr>    <dbl>   <dbl>
##  1 49035100100 Female      55    30.9
##  2 49035100100 Male        83    39.2
##  3 49035100200 Female     167    57.5
##  4 49035100200 Male       153    50.9
##  5 49035100306 Female     273   109. 
##  6 49035100306 Male       225    90.3
##  7 49035100307 Female     188    70.2
##  8 49035100307 Male       117    64.5
##  9 49035100308 Female     164    98.7
## 10 49035100308 Male       129    77.9
## # … with 414 more rows
```
…
