…
utah <- get_estimates(
  geography = "state",
  state = "UT",
  product = "characteristics",
  breakdown = c("SEX", "AGEGROUP"),
  breakdown_labels = TRUE,
  year = 2019
) 

utah
```

```
## # A tibble: 96 x 5
##    GEOID NAME    value SEX        AGEGROUP          
##    <chr> <chr>   <dbl> <chr>      <fct>             
##  1 49    Utah  3205958 Both sexes All ages          
##  2 49    Utah   247803 Both sexes Age 0 to 4 years  
##  3 49    Utah   258976 Both sexes Age 5 to 9 years  
##  4 49    Utah  1614917 Male       All ages          
##  5 49    Utah   132868 Male       Age 5 to 9 years  
##  6 49    Utah  1591041 Female     All ages          
##  7 49    Utah   126108 Female     Age 5 to 9 years  
##  8 49    Utah    23039 Female     Age 80 to 84 years
##  9 49    Utah   267985 Both sexes Age 10 to 14 years
## 10 49    Utah   137940 Male       Age 10 to 14 years
## # … with 86 more rows
```
The function returns a tidy dataset in which each row represents population values broken down by age and sex for the state of Utah. However, there are some key issues with this dataset that must be addressed before constructing a population pyramid. First, several rows represent values that we don't need for our population pyramid visualization. For example, the first few rows in the dataset represent population values for `"Both sexes"` or for `"All ages"`. In turn, it will be necessary to isolate those rows that represent five-year age bands by sex, anmd remove the rows that do not. This can be resolved with some data wrangling using tidyverse tools.

In the dataset returned by `get_estimates()`, five-year age bands are identified in the `AGEGROUP` column beginning with the word `"Age"`. We can filter this dataset for rows that match this pattern, and remove those rows that represent both sexes. This leaves us with rows that represent five-year age bands by sex. However, to achieve the desired visual effect, data for one sex must mirror another, split by a central vertical axis. To accomplish this, we can set the values for all `Male` values to negative.


```r
utah_filtered <- filter(utah, str_detect(AGEGROUP, "^Age"), 
                  SEX != "Both sexes") %>%
  mutate(value = ifelse(SEX == "Male", -value, value))

utah_filtered
```

```
## # A tibble: 36 x 5
##    GEOID NAME    value SEX    AGEGROUP          
##    <chr> <chr>   <dbl> <chr>  <fct>             
##  1 49    Utah  -132868 Male   Age 5 to 9 years  
##  2 49    Utah   126108 Female Age 5 to 9 years  
##  3 49    Utah    23039 Female Age 80 to 84 years
##  4 49    Utah  -137940 Male   Age 10 to 14 years
##  5 49    Utah  -129312 Male   Age 15 to 19 years
##  6 49    Utah   130045 Female Age 10 to 14 years
##  7 49    Utah   124535 Female Age 15 to 19 years
##  8 49    Utah  -135806 Male   Age 20 to 24 years
##  9 49    Utah   128846 Female Age 20 to 24 years
## 10 49    Utah  -111776 Male   Age 30 to 34 years
## # … with 26 more rows
```
…
One of the most powerful features of ggplot2 is its ability to generate *faceted plots*, which are also commonly referred to as *small multiples*. Faceted plots allow for the sub-division of a dataset into groups, which are then plotted side-by-side to facilitate comparisons between those groups. This is particularly useful when examining how distributions of values vary across different geographies. An example shown below involves a comparison of median home values by Census tract for three counties in the Portland, Oregon area: Multnomah, which contains the city of Portland, and the suburban counties of Clackamas and Washington.


```r
housing_val <- get_acs(geography = "tract", 
                       variables = "B25077_001", 
                       state = "OR", 
                       county = c("Multnomah", "Clackamas", "Washington"))

housing_val
```

```
## # A tibble: 355 x 5
##    GEOID       NAME                                     variable  estimate   moe
##    <chr>       <chr>                                    <chr>        <dbl> <dbl>
##  1 41005020100 Census Tract 201, Clackamas County, Ore… B25077_0…   800400 83602
##  2 41005020200 Census Tract 202, Clackamas County, Ore… B25077_0…   821800 79926
##  3 41005020302 Census Tract 203.02, Clackamas County, … B25077_0…   523700 40705
##  4 41005020303 Census Tract 203.03, Clackamas County, … B25077_0…   533000 34841
##  5 41005020304 Census Tract 203.04, Clackamas County, … B25077_0…   630400 65801
##  6 41005020401 Census Tract 204.01, Clackamas County, … B25077_0…   513400 39993
##  7 41005020403 Census Tract 204.03, Clackamas County, … B25077_0…   787700 54683
##  8 41005020404 Census Tract 204.04, Clackamas County, … B25077_0…   648500 19144
##  9 41005020501 Census Tract 205.01, Clackamas County, … B25077_0…   607200 34920
## 10 41005020503 Census Tract 205.03, Clackamas County, … B25077_0…   645100 50467
## # … with 345 more rows
```

As with other datasets obtained with tidycensus, the `NAME` column contains descriptive information that can be parsed to make comparisons. In this case, Census tract ID, county, and state are separated with commas; in turn the tidyverse `separate()` function can split this column into three columns accordingly.


```r
housing_val2 <- separate(housing_val, NAME, 
                         into = c("tract", "county", "state"), 
                         sep = ",")

housing_val2
```

```
## # A tibble: 355 x 7
##    GEOID      tract            county           state   variable  estimate   moe
##    <chr>      <chr>            <chr>            <chr>   <chr>        <dbl> <dbl>
##  1 410050201… Census Tract 201 " Clackamas Cou… " Oreg… B25077_0…   800400 83602
##  2 410050202… Census Tract 202 " Clackamas Cou… " Oreg… B25077_0…   821800 79926
##  3 410050203… Census Tract 20… " Clackamas Cou… " Oreg… B25077_0…   523700 40705
##  4 410050203… Census Tract 20… " Clackamas Cou… " Oreg… B25077_0…   533000 34841
##  5 410050203… Census Tract 20… " Clackamas Cou… " Oreg… B25077_0…   630400 65801
##  6 410050204… Census Tract 20… " Clackamas Cou… " Oreg… B25077_0…   513400 39993
##  7 410050204… Census Tract 20… " Clackamas Cou… " Oreg… B25077_0…   787700 54683
##  8 410050204… Census Tract 20… " Clackamas Cou… " Oreg… B25077_0…   648500 19144
##  9 410050205… Census Tract 20… " Clackamas Cou… " Oreg… B25077_0…   607200 34920
## 10 410050205… Census Tract 20… " Clackamas Cou… " Oreg… B25077_0…   645100 50467
## # … with 345 more rows
```
…
