…
### Understanding and working with ZCTAs

For example, the most granular geography at which many agencies release data is at the zip code level. This is not an ideal geography for visualization, given that zip codes represent collections of US Postal Service routes (or sometimes even a single building, or Post Office box) that are not guaranteed to form coherent geographies. The US Census Bureau allows for an approximation of zip code mapping with Zip Code Tabulation Areas, or ZCTAs. ZCTAs are shapes built from Census blocks in which the most common zip code for addresses in each block determines how blocks are allocated to corresponding ZCTAs. While ZCTAs are not recommended for spatial analysis due to these irregularities, they are effective for visualizing data distributions when no other granular geographies are available.

An example of this is the [Internal Revenue Service's Statistics of Income (SOI) data](https://www.irs.gov/statistics/soi-tax-stats-individual-income-tax-statistics-2018-zip-code-data-soi), which includes a wide range of indicators derived from tax returns. The most detailed geography available is the zip code level in this dataset, meaning that within-county visualizations require using ZCTAs. Let's read in and take a quick look at the data:


```r
irs_data <- read_csv("https://www.irs.gov/pub/irs-soi/18zpallnoagi.csv")

irs_data
```

```
## # A tibble: 27,658 x 153
##    STATEFIPS STATE ZIPCODE AGI_STUB      N1  MARS1  MARS2  MARS4     ELF CPREP
##    <chr>     <chr> <chr>      <dbl>   <dbl>  <dbl>  <dbl>  <dbl>   <dbl> <dbl>
##  1 01        AL    00000          0 2036290 853350 746450 393790 1851240 93480
##  2 01        AL    35004          0    5200   2150   2100    820    4730   260
##  3 01        AL    35005          0    3190   1410    840    890    2880   160
##  4 01        AL    35006          0    1240    490    590    140    1120    40
##  5 01        AL    35007          0   12050   4840   5180   1740   10580   840
##  6 01        AL    35010          0    7840   3010   2700   2000    7290   290
##  7 01        AL    35014          0    1600    620    490    450    1460    80
##  8 01        AL    35016          0    7210   2880   3280    880    6690   300
##  9 01        AL    35019          0     890    320    450    110     840    20
## 10 01        AL    35020          0    8950   3880   1020   3850    7950   540
## # … with 27,648 more rows, and 143 more variables: PREP <dbl>, DIR_DEP <dbl>,
## #   N2 <dbl>, NUMDEP <dbl>, TOTAL_VITA <dbl>, VITA <dbl>, TCE <dbl>,
## #   VITA_EIC <dbl>, RAC <dbl>, ELDERLY <dbl>, A00100 <dbl>, N02650 <dbl>,
## #   A02650 <dbl>, N00200 <dbl>, A00200 <dbl>, N00300 <dbl>, A00300 <dbl>,
## #   N00600 <dbl>, A00600 <dbl>, N00650 <dbl>, A00650 <dbl>, N00700 <dbl>,
## #   A00700 <dbl>, N00900 <dbl>, A00900 <dbl>, N01000 <dbl>, A01000 <dbl>,
## #   N01750 <dbl>, A01750 <dbl>, SCHF <dbl>, N02300 <dbl>, A02300 <dbl>,
## #   N02500 <dbl>, A02500 <dbl>, N26270 <dbl>, A26270 <dbl>, N02900 <dbl>,
## #   A02900 <dbl>, N03220 <dbl>, A03220 <dbl>, N03300 <dbl>, A03300 <dbl>,
…
