…
---


```r
wy_pums
```

```
## # A tibble: 5,967 x 8
##    SERIALNO      SPORDER  WGTP PWGTP  AGEP ST    SCHL  SEX  
##    <chr>           <dbl> <dbl> <dbl> <dbl> <chr> <chr> <chr>
##  1 2019GQ0009731       1     0    47    28 56    16    1    
##  2 2019GQ0010758       1     0    27    54 56    16    2    
##  3 2019GQ0014986       1     0    67    43 56    16    1    
##  4 2019GQ0016090       1     0    57    19 56    19    1    
##  5 2019GQ0020825       1     0    24    20 56    18    2    
##  6 2019GQ0022170       1     0    73    18 56    16    1    
##  7 2019GQ0022185       1     0    32    14 56    11    1    
##  8 2019GQ0023934       1     0    75    51 56    18    1    
##  9 2019GQ0026378       1     0    40    94 56    16    2    
## 10 2019GQ0027977       1     0    48    22 56    21    1    
## # … with 5,957 more rows
```
…
---


```r
wy_pums_recoded
```

```
## # A tibble: 5,967 x 11
##    SERIALNO  SPORDER  WGTP PWGTP  AGEP ST    SCHL  SEX   ST_label SCHL_label    
##    <chr>       <dbl> <dbl> <dbl> <dbl> <chr> <chr> <chr> <ord>    <ord>         
##  1 2019GQ00…       1     0   206    17 56    16    2     Wyoming… Regular high …
##  2 2019GQ00…       1     0    50    37 56    18    1     Wyoming… Some college,…
##  3 2019GQ00…       1     0    33    75 56    19    2     Wyoming… 1 or more yea…
##  4 2019GQ00…       1     0    23    21 56    19    2     Wyoming… 1 or more yea…
##  5 2019GQ00…       1     0   209    94 56    16    1     Wyoming… Regular high …
##  6 2019GQ00…       1     0   273    26 56    16    1     Wyoming… Regular high …
##  7 2019GQ00…       1     0     6    16 56    12    1     Wyoming… Grade 9       
##  8 2019GQ00…       1     0    67    18 56    18    2     Wyoming… Some college,…
##  9 2019GQ00…       1     0   113    94 56    21    2     Wyoming… Bachelor's de…
## 10 2019GQ00…       1     0    10    44 56    13    1     Wyoming… Grade 10      
## # … with 5,957 more rows, and 1 more variable: SEX_label <ord>
```
…
---


```r
wy_pums_filtered
```

```
## # A tibble: 7,658 x 11
##    SERIALNO  SPORDER  WGTP PWGTP  AGEP ST    SCHL  SEX   ST_label SCHL_label    
##    <chr>       <dbl> <dbl> <dbl> <dbl> <chr> <chr> <chr> <ord>    <ord>         
##  1 20150000…       2     5     6    83 56    20    2     Wyoming… Associate's d…
##  2 20150000…       1    23    23    62 56    18    2     Wyoming… Some college,…
##  3 20150000…       1    17    17    33 56    18    2     Wyoming… Some college,…
##  4 20150000…       1     3     3    56 56    17    2     Wyoming… GED or altern…
##  5 20150000…       2    17     7    54 56    16    2     Wyoming… Regular high …
##  6 20150000…       1     3     3    41 56    19    2     Wyoming… 1 or more yea…
##  7 20150000…       1    13    13    67 56    19    2     Wyoming… 1 or more yea…
##  8 20150000…       1     4     4    53 56    20    2     Wyoming… Associate's d…
##  9 20150000…       3     4     5    29 56    20    2     Wyoming… Associate's d…
## 10 20150000…       1    11    11    65 56    18    2     Wyoming… Some college,…
## # … with 7,648 more rows, and 1 more variable: SEX_label <ord>
```
…
---


```r
wy_age_by_puma
```

```
## # A tibble: 29,238 x 7
##    SERIALNO      SPORDER  WGTP PWGTP  AGEP PUMA  ST   
##    <chr>           <dbl> <dbl> <dbl> <dbl> <chr> <chr>
##  1 2015000001990       1    27    26    67 00300 56   
##  2 2015000006752       1     5     5    86 00100 56   
##  3 2015000006752       2     5     6    83 00100 56   
##  4 2015000006847       1    29    29    61 00300 56   
##  5 2015000007045       1    23    23    62 00300 56   
##  6 2015000007045       2    23    19    66 00300 56   
##  7 2015000007045       3    23    34    35 00300 56   
##  8 2015000007382       1    17    17    33 00500 56   
##  9 2015000010448       1     9     9    69 00100 56   
## 10 2015000010448       2     9     9    77 00100 56   
## # … with 29,228 more rows
```
…
---


```r
wy_puma_subset
```

```
## # A tibble: 7,176 x 7
##    SERIALNO      SPORDER  WGTP PWGTP  AGEP PUMA  ST   
##    <chr>           <dbl> <dbl> <dbl> <dbl> <chr> <chr>
##  1 2015000008887       1     3     3    32 00500 56   
##  2 2015000011835       1    18    18    73 00500 56   
##  3 2015000020297       1    11    11    71 00500 56   
##  4 2015000020297       2    11    12    66 00500 56   
##  5 2015000026229       1    17    17    28 00500 56   
##  6 2015000026229       2    17    13    19 00500 56   
##  7 2015000033620       1     7     6    78 00500 56   
##  8 2015000044674       1    14    13    40 00500 56   
##  9 2015000044674       2    14    14    50 00500 56   
## 10 2015000044674       3    14    10    16 00500 56   
## # … with 7,166 more rows
```
…
