…
`count()` has the additional benefit, however, of allowing for the specification of one our more columns that will be grouped and tabulated.  For example, we could tabulate data by unique values of age and sex in Mississippi: 


```r
ms_pums %>%
  count(SEX_label, AGEP, wt = PWGTP) 
```

```
## # A tibble: 186 x 3
##    SEX_label  AGEP     n
##    <ord>     <dbl> <dbl>
##  1 Male          0 18232
##  2 Male          1 19104
##  3 Male          2 18399
##  4 Male          3 18810
##  5 Male          4 20597
##  6 Male          5 18066
##  7 Male          6 20756
##  8 Male          7 20989
##  9 Male          8 20548
## 10 Male          9 21852
## # … with 176 more rows
```
…
```r
ms_pums_summary
```

```
## # A tibble: 42 x 6
## # Groups:   PUMA [21]
##    PUMA  SEX_label total_pop mean_age ba_above ba_above_pct
##    <chr> <ord>         <dbl>    <dbl>    <dbl>        <dbl>
##  1 00100 Male          86297     35.6    12061         22.1
##  2 00100 Female        92713     37.7    17297         27.8
##  3 00200 Male          71887     38.4     5933         12.4
##  4 00200 Female        75595     41.1     8315         15.8
##  5 00300 Male          56603     36.4     4498         12.4
##  6 00300 Female        60428     38.9     6641         16.3
##  7 00400 Male          69837     37.0    10173         23.0
##  8 00400 Female        74481     39.1    11907         24.4
##  9 00500 Male          69954     36.6     8238         18.2
## 10 00500 Female        75230     38.7    11162         22.0
## # … with 32 more rows
```
…
```r
ms_pums_replicate
```

```
## # A tibble: 146,023 x 92
##    SERIALNO  SPORDER  AGEP PUMA  ST    SCHL  SEX   ST_label SCHL_label SEX_label
##    <chr>       <dbl> <dbl> <chr> <chr> <chr> <chr> <ord>    <ord>      <ord>    
##  1 20150000…       1    53 01100 28    16    2     Mississ… Regular h… Female   
##  2 20150000…       2    33 01100 28    13    1     Mississ… Grade 10   Male     
##  3 20150000…       3    32 01100 28    17    1     Mississ… GED or al… Male     
##  4 20150000…       1    42 00500 28    21    1     Mississ… Bachelor'… Male     
##  5 20150000…       2    37 00500 28    21    2     Mississ… Bachelor'… Female   
##  6 20150000…       3     8 00500 28    05    1     Mississ… Grade 2    Male     
##  7 20150000…       4     7 00500 28    04    1     Mississ… Grade 1    Male     
##  8 20150000…       1    33 01300 28    18    2     Mississ… Some coll… Female   
##  9 20150000…       2    15 01300 28    11    1     Mississ… Grade 8    Male     
## 10 20150000…       3     5 01300 28    02    2     Mississ… Nursery s… Female   
## # … with 146,013 more rows, and 82 more variables: WGTP <dbl>, PWGTP <dbl>,
## #   PWGTP1 <dbl>, PWGTP2 <dbl>, PWGTP3 <dbl>, PWGTP4 <dbl>, PWGTP5 <dbl>,
## #   PWGTP6 <dbl>, PWGTP7 <dbl>, PWGTP8 <dbl>, PWGTP9 <dbl>, PWGTP10 <dbl>,
## #   PWGTP11 <dbl>, PWGTP12 <dbl>, PWGTP13 <dbl>, PWGTP14 <dbl>, PWGTP15 <dbl>,
## #   PWGTP16 <dbl>, PWGTP17 <dbl>, PWGTP18 <dbl>, PWGTP19 <dbl>, PWGTP20 <dbl>,
## #   PWGTP21 <dbl>, PWGTP22 <dbl>, PWGTP23 <dbl>, PWGTP24 <dbl>, PWGTP25 <dbl>,
## #   PWGTP26 <dbl>, PWGTP27 <dbl>, PWGTP28 <dbl>, PWGTP29 <dbl>, PWGTP30 <dbl>,
## #   PWGTP31 <dbl>, PWGTP32 <dbl>, PWGTP33 <dbl>, PWGTP34 <dbl>, PWGTP35 <dbl>,
## #   PWGTP36 <dbl>, PWGTP37 <dbl>, PWGTP38 <dbl>, PWGTP39 <dbl>, PWGTP40 <dbl>,
…
## Calculating estimates and errors with __srvyr__

* srvyr's `survey_*()` family of functions automatically calculates standard errors around tabulated estimates for you 


```r
ms_pums_svy %>% 
  survey_count(PUMA, SEX_label)
```

```
## # A tibble: 42 x 4
##    PUMA  SEX_label     n  n_se
##    <chr> <ord>     <dbl> <dbl>
##  1 00100 Male      86297  272.
##  2 00100 Female    92713  119.
##  3 00200 Male      71887  402.
##  4 00200 Female    75595  333.
##  5 00300 Male      56603  715.
##  6 00300 Female    60428  293.
##  7 00400 Male      69837  652.
##  8 00400 Female    74481  458.
##  9 00500 Male      69954  233.
## 10 00500 Female    75230  258.
## # … with 32 more rows
```
…
